-------------------------------------------------------------------------------
Test set: com.getjavajob.training.web1608.ostrishkoa.GroupDaoTest
-------------------------------------------------------------------------------
Tests run: 13, Failures: 0, Errors: 0, Skipped: 0, Time elapsed: 1.994 sec
